%YAML 1.1
%TAG !u! tag:unity3d.com,2011:
--- !u!1 &3857458991134261056
GameObject:
  m_ObjectHideFlags: 0
  m_CorrespondingSourceObject: {fileID: 0}
  m_PrefabInstance: {fileID: 0}
  m_PrefabAsset: {fileID: 0}
  serializedVersion: 6
  m_Component:
  - component: {fileID: 3857458991134261058}
  - component: {fileID: 3857458991134261057}
  m_Layer: 7
  m_Name: GameManager
  m_TagString: Untagged
  m_Icon: {fileID: 0}
  m_NavMeshLayer: 0
  m_StaticEditorFlags: 0
  m_IsActive: 1
--- !u!4 &3857458991134261058
Transform:
  m_ObjectHideFlags: 0
  m_CorrespondingSourceObject: {fileID: 0}
  m_PrefabInstance: {fileID: 0}
  m_PrefabAsset: {fileID: 0}
  m_GameObject: {fileID: 3857458991134261056}
  m_LocalRotation: {x: 0, y: 0, z: 0, w: 1}
  m_LocalPosition: {x: 0, y: 0, z: 0}
  m_LocalScale: {x: 1, y: 1, z: 1}
  m_Children: []
  m_Father: {fileID: 0}
  m_RootOrder: 0
  m_LocalEulerAnglesHint: {x: 0, y: 0, z: 0}
--- !u!114 &3857458991134261057
MonoBehaviour:
  m_ObjectHideFlags: 0
  m_CorrespondingSourceObject: {fileID: 0}
  m_PrefabInstance: {fileID: 0}
  m_PrefabAsset: {fileID: 0}
  m_GameObject: {fileID: 3857458991134261056}
  m_Enabled: 1
  m_EditorHideFlags: 0
  m_Script: {fileID: 11500000, guid: 38b7f86df776b08478c88792e36485ba, type: 3}
  m_Name: 
  m_EditorClassIdentifier: 
  m_DominationPointsLocation:
  - {fileID: 0}
  - {fileID: 0}
  - {fileID: 0}
  - {fileID: 0}
  m_DominationPoint: {fileID: 3020948470501074736, guid: a82fadf5cb9221c45a1fb55c9f1684ef, type: 3}
  m_Enemy: {fileID: 7766387842416094008, guid: 7a8aac9dcd56fe84fa86d1063cf24a4a, type: 3}
  m_BigEnemy: {fileID: 3280743395125528226, guid: 0cb66157016041d48b02da1d3574b26a, type: 3}
  m_RangedEnemy: {fileID: 7366903857215588054, guid: 6f447f3ddc6c15e4b8ef562b18b94e7c, type: 3}
